api_id = 14123651
api_hash = '0ad938ebf349a829d49b96d4cf390560'
phone = '+16196583287'


api_id = 17556130
api_hash = 'b5fea69c4801f5bed6eb2f8a5503ba2d'
phone = '+16308660245'


api_id = 14072177
api_hash = 'ac7db3e0257d792356377e9e354e030a'
phone = '+12179317287' //ADMIN USER


api_id = 18013861
api_hash = '9d7d80340b71387ca51d81c1ef509351'
phone = '+16207167198'


api_id = 15293160
api_hash = 'da7d604ebab4f965e938974d53efd599'
phone = '+12178826428'